#FIG 3.2  Produced by xfig version 3.2.5-alpha5
Landscape
Center
Metric
A4      
100.00
Single
-2
1200 2
2 2 0 2 0 7 50 -1 15 0.000 0 0 -1 0 0 5
	 1800 4950 3150 4950 3150 5400 1800 5400 1800 4950
2 1 1 1 0 7 50 -1 -1 4.000 0 0 -1 0 0 2
	 1440 5400 1440 5940
2 1 0 5 1 7 50 -1 20 0.000 0 0 -1 1 0 2
	1 1 4.00 90.00 120.00
	 2790 2880 3600 2880
2 1 0 5 1 7 50 -1 20 0.000 0 0 -1 1 0 2
	1 1 4.00 90.00 120.00
	 2790 3330 3600 3330
2 1 0 5 1 7 50 -1 20 0.000 0 0 -1 1 0 2
	1 1 4.00 90.00 120.00
	 2790 2430 3600 2430
2 1 0 5 1 7 50 -1 20 0.000 0 0 -1 1 0 2
	1 1 4.00 90.00 120.00
	 2790 2070 3600 2070
2 1 0 5 1 7 50 -1 20 0.000 0 0 -1 1 0 2
	1 1 4.00 90.00 120.00
	 2790 4770 3600 4770
2 1 0 5 1 7 50 -1 20 0.000 0 0 -1 1 0 2
	1 1 4.00 90.00 120.00
	 2790 6030 3600 6030
2 2 0 2 0 7 60 -1 20 0.000 0 0 -1 0 0 5
	 1800 5850 3150 5850 3150 6300 1800 6300 1800 5850
2 2 0 2 0 7 60 -1 20 0.000 0 0 -1 0 0 5
	 1800 4500 3150 4500 3150 4950 1800 4950 1800 4500
2 2 0 2 0 7 60 -1 20 0.000 0 0 -1 0 0 5
	 1800 4050 3150 4050 3150 4500 1800 4500 1800 4050
2 2 0 2 0 7 60 -1 20 0.000 0 0 -1 0 0 5
	 1800 3600 3150 3600 3150 4050 1800 4050 1800 3600
2 2 0 2 0 7 60 -1 20 0.000 0 0 -1 0 0 5
	 1800 3150 3150 3150 3150 3600 1800 3600 1800 3150
2 2 0 2 0 7 60 -1 20 0.000 0 0 -1 0 0 5
	 1800 2700 3150 2700 3150 3150 1800 3150 1800 2700
2 2 0 2 0 7 60 -1 20 0.000 0 0 -1 0 0 5
	 1800 2250 3150 2250 3150 2700 1800 2700 1800 2250
2 2 0 2 0 7 60 -1 20 0.000 0 0 -1 0 0 5
	 1800 1800 3150 1800 3150 2250 1800 2250 1800 1800
2 1 0 5 1 7 50 -1 20 0.000 0 0 -1 1 0 2
	1 1 4.00 90.00 120.00
	 2790 3780 3600 3780
2 1 0 5 1 7 50 -1 20 0.000 0 0 -1 1 0 2
	1 1 4.00 90.00 120.00
	 2790 4230 3600 4230
2 1 0 5 1 7 50 -1 20 0.000 0 0 -1 1 0 2
	1 1 4.00 90.00 120.00
	 2790 5580 3600 5580
2 2 0 2 0 7 60 -1 20 0.000 0 0 -1 0 0 5
	 1800 5400 3150 5400 3150 5850 1800 5850 1800 5400
2 4 0 2 0 7 50 -1 20 0.000 0 0 7 0 0 5
	 4050 2250 3600 2250 3600 1800 4050 1800 4050 2250
2 4 0 2 0 7 50 -1 20 0.000 0 0 7 0 0 5
	 4770 2250 4230 2250 4230 1800 4770 1800 4770 2250
2 1 0 10 0 7 60 -1 20 0.000 0 0 -1 0 0 2
	 3870 1980 4680 1980
2 4 0 2 0 7 50 -1 20 0.000 0 0 7 0 0 5
	 4050 2700 3600 2700 3600 2250 4050 2250 4050 2700
2 4 0 2 0 7 50 -1 20 0.000 0 0 7 0 0 5
	 4770 2700 4230 2700 4230 2250 4770 2250 4770 2700
2 1 0 10 0 7 60 -1 20 0.000 0 0 -1 0 0 2
	 3870 2430 4680 2430
2 4 0 2 0 7 50 -1 20 0.000 0 0 7 0 0 5
	 4050 3150 3600 3150 3600 2700 4050 2700 4050 3150
2 4 0 2 0 7 50 -1 20 0.000 0 0 7 0 0 5
	 4770 3150 4230 3150 4230 2700 4770 2700 4770 3150
2 1 0 10 0 7 60 -1 20 0.000 0 0 -1 0 0 2
	 3870 2880 4590 2880
2 4 0 2 0 7 50 -1 20 0.000 0 0 7 0 0 5
	 4050 3600 3600 3600 3600 3150 4050 3150 4050 3600
2 4 0 2 0 7 50 -1 20 0.000 0 0 7 0 0 5
	 4770 3600 4230 3600 4230 3150 4770 3150 4770 3600
2 1 0 10 0 7 60 -1 20 0.000 0 0 -1 0 0 2
	 3870 3330 4680 3330
2 4 0 2 0 7 50 -1 20 0.000 0 0 7 0 0 5
	 4050 4050 3600 4050 3600 3600 4050 3600 4050 4050
2 4 0 2 0 7 50 -1 20 0.000 0 0 7 0 0 5
	 4770 4050 4230 4050 4230 3600 4770 3600 4770 4050
2 1 0 10 0 7 60 -1 20 0.000 0 0 -1 0 0 2
	 3870 3780 4680 3780
2 4 0 2 0 7 50 -1 20 0.000 0 0 7 0 0 5
	 4050 4500 3600 4500 3600 4050 4050 4050 4050 4500
2 4 0 2 0 7 50 -1 20 0.000 0 0 7 0 0 5
	 4770 4500 4230 4500 4230 4050 4770 4050 4770 4500
2 1 0 10 0 7 60 -1 20 0.000 0 0 -1 0 0 2
	 3870 4230 4680 4230
2 4 0 2 0 7 50 -1 20 0.000 0 0 7 0 0 5
	 4050 5040 3600 5040 3600 4590 4050 4590 4050 5040
2 4 0 2 0 7 50 -1 20 0.000 0 0 7 0 0 5
	 4770 5040 4230 5040 4230 4590 4770 4590 4770 5040
2 1 0 10 0 7 60 -1 20 0.000 0 0 -1 0 0 2
	 3870 4770 4680 4770
2 4 0 2 0 7 50 -1 20 0.000 0 0 7 0 0 5
	 4050 5850 3600 5850 3600 5400 4050 5400 4050 5850
2 4 0 2 0 7 50 -1 20 0.000 0 0 7 0 0 5
	 4770 5850 4230 5850 4230 5400 4770 5400 4770 5850
2 1 0 10 0 7 60 -1 20 0.000 0 0 -1 0 0 2
	 3870 5580 4680 5580
2 4 0 2 0 7 50 -1 20 0.000 0 0 7 0 0 5
	 4050 6300 3600 6300 3600 5850 4050 5850 4050 6300
2 4 0 2 0 7 50 -1 20 0.000 0 0 7 0 0 5
	 4770 6300 4230 6300 4230 5850 4770 5850 4770 6300
2 1 0 10 0 7 60 -1 20 0.000 0 0 -1 0 0 2
	 3870 6030 4680 6030
4 0 0 50 -1 14 16 0.0000 4 180 165 1350 2070 0\001
4 0 0 50 -1 14 16 0.0000 4 180 165 1350 2970 2\001
4 0 0 50 -1 14 16 0.0000 4 180 165 1350 3960 4\001
4 0 0 50 -1 14 16 0.0000 4 180 165 1350 2520 1\001
4 0 0 50 -1 14 16 0.0000 4 180 165 1350 3510 3\001
4 0 0 50 -1 14 16 0.0000 4 180 165 1350 4410 5\001
4 0 0 50 -1 14 16 0.0000 4 180 165 1350 4860 6\001
4 0 0 50 -1 14 16 0.0000 4 180 165 1350 5310 7\001
4 0 0 50 -1 14 16 0.0000 4 165 165 1350 6210 M\001
