#FIG 3.2  Produced by xfig version 3.2.5-alpha5
Landscape
Center
Metric
A4      
100.00
Single
-2
1200 2
6 1080 2655 1845 3420
2 2 0 2 0 7 55 -1 20 0.000 0 0 -1 0 0 5
	 1125 2700 1800 2700 1800 3375 1125 3375 1125 2700
4 0 0 50 -1 20 16 0.0000 4 180 120 1402 3127 2\001
-6
6 1755 2655 2520 3420
2 2 0 4 0 7 55 -1 20 0.000 0 0 -1 0 0 5
	 1800 2700 2475 2700 2475 3375 1800 3375 1800 2700
4 0 0 50 -1 20 16 0.0000 4 180 120 2077 3127 4\001
-6
6 2430 2655 3195 3420
2 2 0 2 0 7 55 -1 20 0.000 0 0 -1 0 0 5
	 2475 2700 3150 2700 3150 3375 2475 3375 2475 2700
4 0 0 50 -1 20 16 0.0000 4 180 120 2752 3127 6\001
-6
6 3105 2655 3870 3420
2 2 0 2 0 7 55 -1 20 0.000 0 0 -1 0 0 5
	 3150 2700 3825 2700 3825 3375 3150 3375 3150 2700
4 0 0 50 -1 20 16 0.0000 4 180 120 3427 3127 7\001
-6
6 6480 2655 7245 3420
2 2 0 2 0 7 55 -1 16 0.000 0 0 -1 0 0 5
	 6525 2700 7200 2700 7200 3375 6525 3375 6525 2700
4 0 0 50 -1 20 16 0.0000 4 180 240 6742 3127 49\001
-6
6 5805 2655 6570 3420
2 2 0 2 0 7 55 -1 16 0.000 0 0 -1 0 0 5
	 5850 2700 6525 2700 6525 3375 5850 3375 5850 2700
4 0 0 50 -1 20 16 0.0000 4 180 240 6067 3127 29\001
-6
6 5130 2655 5895 3420
2 2 0 2 0 7 55 -1 16 0.000 0 0 -1 0 0 5
	 5175 2700 5850 2700 5850 3375 5175 3375 5175 2700
4 0 0 50 -1 20 16 0.0000 4 180 240 5392 3127 18\001
-6
6 4455 2655 5220 3420
2 2 0 2 0 7 55 -1 16 0.000 0 0 -1 0 0 5
	 4500 2700 5175 2700 5175 3375 4500 3375 4500 2700
4 0 0 50 -1 20 16 0.0000 4 180 240 4717 3127 12\001
-6
6 3780 2655 4545 3420
2 2 0 2 0 7 55 -1 16 0.000 0 0 -1 0 0 5
	 3825 2700 4500 2700 4500 3375 3825 3375 3825 2700
4 0 0 50 -1 20 16 0.0000 4 180 240 4042 3127 10\001
-6
2 1 0 4 9 7 50 -1 -1 0.000 0 0 -1 1 0 2
	1 1 2.00 120.00 150.00
	 1350 1980 1350 2475
2 1 0 4 9 7 50 -1 -1 0.000 0 0 -1 1 0 2
	1 1 2.00 120.00 150.00
	 3510 1980 3510 2475
4 0 10 50 -1 22 16 0.0000 4 195 330 3645 2250 Fin\001
4 0 10 50 -1 22 16 0.0000 4 210 630 585 2250 D\351but\001
4 0 4 50 -1 18 16 0.0000 4 210 390 1980 2250 6 ?\001
