#FIG 3.2
Landscape
Center
Metric
A4      
100.00
Single
-2
1200 2
2 2 0 2 0 7 50 -1 20 0.000 0 0 -1 0 0 5
	 900 4115 4500 4115 4500 4515 900 4515 900 4115
2 2 0 2 0 7 50 -1 20 0.000 0 0 -1 0 0 5
	 900 2900 4500 2900 4500 3300 900 3300 900 2900
2 1 0 3 -1 7 50 -1 -1 0.000 0 0 -1 1 0 2
	1 0 1.00 135.00 120.00
	 2070 2540 2070 2835
2 1 0 3 -1 7 50 -1 -1 0.000 0 0 -1 1 0 2
	1 0 1.00 135.00 120.00
	 3870 2540 3870 2835
2 1 0 3 -1 7 50 -1 -1 0.000 0 0 -1 1 0 2
	1 0 1.00 135.00 120.00
	 1440 3755 1440 4050
2 1 0 3 -1 7 50 -1 -1 0.000 0 0 -1 1 0 2
	1 0 1.00 135.00 120.00
	 3285 3755 3285 4050
2 2 0 1 0 7 45 -1 14 0.000 0 0 -1 0 0 5
	 2025 2940 3915 2940 3915 3260 2025 3260 2025 2940
2 2 0 1 0 7 45 -1 14 0.000 0 0 7 0 0 5
	 3240 4155 4460 4155 4460 4475 3240 4475 3240 4155
2 2 0 1 0 7 45 -1 14 0.000 0 0 7 0 0 5
	 940 4155 1485 4155 1485 4475 940 4475 940 4155
4 1 -1 50 -1 14 11 0.0000 4 105 270 3870 2475 fin\001
4 1 -1 50 -1 14 11 0.0000 4 120 450 2070 2475 d\351but\001
4 1 -1 50 -1 14 11 0.0000 4 105 270 1440 3690 fin\001
4 1 -1 50 -1 14 11 0.0000 4 120 450 3285 3690 d\351but\001
