#FIG 3.2  Produced by xfig version 3.2.5-alpha5
Landscape
Center
Metric
A4      
100.00
Single
-2
1200 2
2 1 0 6 0 7 60 -1 -1 0.000 0 0 7 0 0 2
	 2070 2835 1890 2430
2 1 0 6 0 7 60 -1 -1 0.000 0 0 7 0 0 2
	 1440 2835 1620 2430
2 1 0 6 0 7 60 -1 -1 0.000 0 0 7 0 0 2
	 3240 2835 3420 2430
2 1 0 6 0 7 60 -1 -1 0.000 0 0 -1 0 0 2
	 2880 1485 4275 1080
2 1 0 6 0 7 60 -1 -1 0.000 0 0 7 0 0 2
	 3330 2070 2880 1755
2 1 0 6 0 7 60 -1 -1 0.000 0 0 7 0 0 2
	 1980 2070 2430 1755
2 1 0 6 0 7 60 -1 -1 0.000 0 0 7 0 0 2
	 6930 2070 6480 1755
2 1 0 6 0 7 60 -1 -1 0.000 0 0 7 0 0 2
	 5580 2070 6030 1755
2 1 0 6 0 7 60 -1 -1 0.000 0 0 7 0 0 2
	 6030 1485 4635 1080
2 1 0 6 0 7 60 -1 -1 0.000 0 0 7 0 0 2
	 3870 2835 3690 2430
2 1 0 6 0 7 60 -1 -1 0.000 0 0 7 0 0 2
	 5040 2835 5220 2430
2 4 0 2 0 7 50 -1 18 0.000 0 0 6 0 0 5
	 4725 1305 4185 1305 4185 765 4725 765 4725 1305
2 4 0 2 0 7 50 -1 18 0.000 0 0 6 0 0 5
	 2925 1890 2385 1890 2385 1350 2925 1350 2925 1890
2 4 0 2 0 7 50 -1 18 0.000 0 0 6 0 0 5
	 2025 2520 1485 2520 1485 1980 2025 1980 2025 2520
2 4 0 2 0 7 50 -1 18 0.000 0 0 6 0 0 5
	 1575 3330 1035 3330 1035 2790 1575 2790 1575 3330
2 4 0 2 0 7 50 -1 18 0.000 0 0 6 0 0 5
	 2475 3330 1935 3330 1935 2790 2475 2790 2475 3330
2 4 0 2 0 7 50 -1 18 0.000 0 0 6 0 0 5
	 3375 3330 2835 3330 2835 2790 3375 2790 3375 3330
2 4 0 2 0 7 50 -1 18 0.000 0 0 6 0 0 5
	 4275 3330 3735 3330 3735 2790 4275 2790 4275 3330
2 4 0 2 0 7 50 -1 18 0.000 0 0 6 0 0 5
	 3825 2520 3285 2520 3285 1980 3825 1980 3825 2520
2 4 0 2 0 7 50 -1 18 0.000 0 0 6 0 0 5
	 5625 2520 5085 2520 5085 1980 5625 1980 5625 2520
2 4 0 2 0 7 50 -1 18 0.000 0 0 6 0 0 5
	 5175 3330 4635 3330 4635 2790 5175 2790 5175 3330
2 4 0 2 0 7 50 -1 18 0.000 0 0 6 0 0 5
	 7470 2520 6930 2520 6930 1980 7470 1980 7470 2520
2 4 0 2 0 7 50 -1 18 0.000 0 0 6 0 0 5
	 6525 1890 5985 1890 5985 1350 6525 1350 6525 1890
2 1 0 6 0 7 60 -1 -1 0.000 0 0 7 0 0 2
	 6885 2835 7065 2430
2 4 0 2 0 7 50 -1 18 0.000 0 0 6 0 0 5
	 7020 3330 6480 3330 6480 2790 7020 2790 7020 3330
2 1 0 6 0 7 60 -1 -1 0.000 0 0 7 0 0 2
	 7515 2835 7335 2430
2 4 0 2 0 7 50 -1 18 0.000 0 0 6 0 0 5
	 7920 3330 7380 3330 7380 2790 7920 2790 7920 3330
2 1 0 6 0 7 60 -1 -1 0.000 0 0 7 0 0 2
	 5670 2835 5490 2430
2 4 0 2 0 7 50 -1 18 0.000 0 0 6 0 0 5
	 6075 3330 5535 3330 5535 2790 6075 2790 6075 3330
