#FIG 3.2  Produced by xfig version 3.2.5-alpha5
Landscape
Center
Metric
A4      
100.00
Single
-2
1200 2
6 6030 3555 6570 4095
2 2 0 2 0 7 55 -1 20 0.000 0 0 -1 0 0 5
	 6075 3600 6525 3600 6525 4050 6075 4050 6075 3600
4 0 0 50 -1 22 16 0.0000 4 195 165 6217 3922 C\001
-6
6 7830 3555 8370 4095
2 2 0 2 0 7 55 -1 20 0.000 0 0 -1 0 0 5
	 7875 3600 8325 3600 8325 4050 7875 4050 7875 3600
4 0 0 50 -1 22 16 0.0000 4 195 165 8017 3922 G\001
-6
6 5355 3195 9540 3375
4 0 19 50 -1 20 16 0.0000 4 180 120 6255 3375 2\001
4 0 19 50 -1 20 16 0.0000 4 180 120 5805 3375 1\001
4 0 19 50 -1 20 16 0.0000 4 180 120 5355 3375 0\001
4 0 19 50 -1 20 16 0.0000 4 180 120 6705 3375 3\001
4 0 19 50 -1 20 16 0.0000 4 180 120 7155 3375 4\001
4 0 19 50 -1 20 16 0.0000 4 180 120 7650 3375 5\001
4 0 19 50 -1 20 16 0.0000 4 180 120 8055 3375 6\001
4 0 19 50 -1 20 16 0.0000 4 180 120 8505 3375 7\001
4 0 19 50 -1 20 16 0.0000 4 180 120 8955 3375 8\001
4 0 19 50 -1 20 16 0.0000 4 180 120 9405 3375 9\001
-6
6 5130 3555 5670 4095
2 2 0 2 0 7 55 -1 20 0.000 0 0 -1 0 0 5
	 5175 3600 5625 3600 5625 4050 5175 4050 5175 3600
4 0 0 50 -1 22 16 0.0000 4 195 165 5317 3922 A\001
-6
6 3857 3440 4403 3986
2 4 0 2 0 7 50 -1 20 0.000 0 0 5 0 0 5
	 4372 3953 3889 3953 3889 3471 4372 3471 4372 3953
4 0 0 50 -1 22 13 0.0000 4 150 120 4066 3787 C\001
-6
6 4179 4082 4725 4628
2 4 0 2 0 7 50 -1 20 0.000 0 0 5 0 0 5
	 4693 4597 4211 4597 4211 4114 4693 4114 4693 4597
4 0 0 50 -1 22 13 0.0000 4 150 135 4382 4430 G\001
-6
6 2571 3440 3118 3986
2 4 0 2 0 7 50 -1 20 0.000 0 0 5 0 0 5
	 3085 3953 2603 3953 2603 3471 3085 3471 3085 3953
4 0 0 50 -1 22 13 0.0000 4 150 120 2780 3787 B\001
-6
6 5580 3555 6120 4095
2 2 0 2 0 7 55 -1 20 0.000 0 0 -1 0 0 5
	 5625 3600 6075 3600 6075 4050 5625 4050 5625 3600
4 0 0 50 -1 22 16 0.0000 4 195 165 5767 3922 B\001
-6
6 8280 3555 8820 4095
2 2 0 2 0 7 55 -1 12 0.000 0 0 -1 0 0 5
	 8325 3600 8775 3600 8775 4050 8325 4050 8325 3600
-6
2 1 0 10 0 7 60 -1 -1 0.000 0 0 -1 0 0 2
	 2861 3535 3375 3150
2 1 0 10 0 7 60 -1 -1 0.000 0 0 -1 0 0 2
	 4082 3535 3567 3150
2 4 0 2 0 7 50 -1 20 0.000 0 0 5 0 0 5
	 3728 3310 3246 3310 3246 2828 3728 2828 3728 3310
2 1 0 10 0 7 60 -1 -1 0.000 0 0 -1 0 0 2
	 4467 4210 4211 3825
2 2 0 2 0 7 55 -1 12 0.000 0 0 -1 0 0 5
	 6525 3600 6975 3600 6975 4050 6525 4050 6525 3600
2 2 0 2 0 7 55 -1 12 0.000 0 0 -1 0 0 5
	 6975 3600 7425 3600 7425 4050 6975 4050 6975 3600
2 2 0 2 0 7 55 -1 12 0.000 0 0 -1 0 0 5
	 7425 3600 7875 3600 7875 4050 7425 4050 7425 3600
2 2 0 2 0 7 55 -1 12 0.000 0 0 -1 0 0 5
	 9225 3600 9675 3600 9675 4050 9225 4050 9225 3600
2 2 0 2 0 7 50 -1 12 0.000 0 0 7 0 0 5
	 9675 3600 10125 3600 10125 4050 9675 4050 9675 3600
2 2 0 2 0 7 55 -1 12 0.000 0 0 -1 0 0 5
	 8775 3600 9225 3600 9225 4050 8775 4050 8775 3600
4 0 19 50 -1 20 16 0.0000 4 180 120 2070 4725 3\001
4 0 19 50 -1 20 16 0.0000 4 180 120 2790 4725 4\001
4 0 19 50 -1 20 16 0.0000 4 180 120 3465 4725 5\001
4 0 19 50 -1 20 16 0.0000 4 180 120 4140 4725 6\001
4 0 19 50 -1 20 16 0.0000 4 180 120 3690 3690 2\001
4 0 19 50 -1 20 16 0.0000 4 180 120 2430 3690 1\001
4 0 19 50 -1 20 16 0.0000 4 180 120 3060 2970 0\001
4 0 0 50 -1 22 13 0.0000 4 150 120 3423 3144 A\001
