#FIG 3.2  Produced by xfig version 3.2.5-alpha5
Landscape
Center
Metric
A4      
100.00
Single
-2
1200 2
2 1 0 4 10 15 60 -1 27 0.000 0 0 -1 0 0 5
	 1485 2250 1485 4815 4095 4815 4095 2250 1485 2250
2 4 0 2 0 7 50 -1 20 0.000 0 0 7 0 0 5
	 4320 2475 4320 1800 4995 1800 4995 2475 4320 2475
2 4 0 2 0 7 50 -1 20 0.000 0 0 7 0 0 5
	 2925 3600 2925 2925 3600 2925 3600 3600 2925 3600
2 4 0 2 0 7 50 -1 20 0.000 0 0 7 0 0 5
	 1665 4365 1665 3690 2340 3690 2340 4365 1665 4365
2 4 0 2 0 7 50 -1 20 0.000 0 0 7 0 0 5
	 2655 4500 2655 3825 3330 3825 3330 4500 2655 4500
2 4 0 2 0 7 50 -1 20 0.000 0 0 7 0 0 5
	 4635 4320 4635 3645 5310 3645 5310 4320 4635 4320
2 4 0 3 4 7 50 -1 20 0.000 0 0 7 0 0 5
	 1890 3330 2565 3330 2565 2655 1890 2655 1890 3330
3 2 0 3 4 7 50 -1 -1 0.000 0 1 0 3
	1 1 1.00 120.00 120.00
	 3285 2430 3780 1620 4185 1845
	 0.000 -1.000 0.000
3 0 0 3 4 7 50 -1 -1 0.000 0 1 0 3
	1 1 1.00 120.00 120.00
	 4905 3555 4545 3105 3780 3825
	 0.000 1.000 0.000
